%YAML 1.1
%TAG !u! tag:unity3d.com,2011:
--- !u!1045 &1
EditorBuildSettings:
  m_ObjectHideFlags: 0
  serializedVersion: 2
  m_Scenes:
  - enabled: 1
    path: Assets/Scenes/Menu.unity
    guid: 75b10ce4e3226814db4bba42da41863b
  - enabled: 1
    path: Assets/Scenes/LoadScene.unity
    guid: 256b683998953a145ab20b9aa0194bd6
  - enabled: 1
    path: Assets/Scenes/Nivel 1.unity
    guid: 9fc0d4010bbf28b4594072e72b8655ab
  m_configObjects: {}
